id,name,model_id:id,group_id:id,perm_read,perm_write,perm_create,perm_unlink
access_liquidacion_line_deposito_admin_ventas,Permisos ventas liquidacion line deposito,gestion_editorial.model_liquidacion_line_descontrol,sales_team.group_sale_manager,1,1,1,1
access_liquidacion_line_deposito_admin_invoice,Permisos invoicing liquidacion line deposito,gestion_editorial.model_liquidacion_line_descontrol,account.group_account_invoice,1,1,1,1
